Added Component: Designator=BT1(Nut Nhan 2 Chan)
Added Component: Designator=C1(C10mm)
Added Component: Designator=C2(0805)
Added Component: Designator=C3(C10mm)
Added Component: Designator=C4(0805)
Added Component: Designator=C5(0805)
Added Component: Designator=C6(0805)
Added Component: Designator=C7(0805)
Added Component: Designator=C8(0805)
Added Component: Designator=C9(0805)
Added Component: Designator=CON1(CON 2 EDG 5.08)
Added Component: Designator=IC1(SOP 8)
Added Component: Designator=IC2(QTO-220)
Added Component: Designator=IDE1(CABLE 10)
Added Component: Designator=JACK DC1(JACK DC 5.5)
Added Component: Designator=JP1(XH2.54-10P)
Added Component: Designator=JP2(JP8)
Added Component: Designator=LED1(LED Phi 5)
Added Component: Designator=R1(res_0805)
Added Component: Designator=R2(Res_0805)
Added Component: Designator=R3(Res_0805)
Added Component: Designator=R4(Res_0805)
Added Component: Designator=R5(res_0805)
Added Component: Designator=SW1(8x8)
Added Component: Designator=U1(32A_M)
Added Pin To Net: NetName=12V Pin=C3-1
Added Pin To Net: NetName=12V Pin=C4-2
Added Pin To Net: NetName=12V Pin=IC2-1
Added Pin To Net: NetName=12V Pin=SW1-2
Added Pin To Net: NetName=12V Pin=SW1-5
Added Net: Name=12V
Added Pin To Net: NetName=COL1 Pin=JP2-1
Added Net: Name=COL1
Added Pin To Net: NetName=COL2 Pin=JP2-2
Added Net: Name=COL2
Added Pin To Net: NetName=COL3 Pin=JP2-3
Added Net: Name=COL3
Added Pin To Net: NetName=COL4 Pin=JP2-4
Added Net: Name=COL4
Added Pin To Net: NetName=GND Pin=BT1-2
Added Pin To Net: NetName=GND Pin=C1-2
Added Pin To Net: NetName=GND Pin=C2-1
Added Pin To Net: NetName=GND Pin=C3-2
Added Pin To Net: NetName=GND Pin=C4-1
Added Pin To Net: NetName=GND Pin=C5-2
Added Pin To Net: NetName=GND Pin=C6-2
Added Pin To Net: NetName=GND Pin=C7-2
Added Pin To Net: NetName=GND Pin=C8-2
Added Pin To Net: NetName=GND Pin=C9-1
Added Pin To Net: NetName=GND Pin=IC1-5
Added Pin To Net: NetName=GND Pin=IC2-2
Added Pin To Net: NetName=GND Pin=IDE1-4
Added Pin To Net: NetName=GND Pin=IDE1-6
Added Pin To Net: NetName=GND Pin=IDE1-8
Added Pin To Net: NetName=GND Pin=IDE1-10
Added Pin To Net: NetName=GND Pin=JACK DC1-2
Added Pin To Net: NetName=GND Pin=JACK DC1-3
Added Pin To Net: NetName=GND Pin=JP1-1
Added Pin To Net: NetName=GND Pin=LED1-2
Added Pin To Net: NetName=GND Pin=R4-2
Added Pin To Net: NetName=GND Pin=U1-3
Added Pin To Net: NetName=GND Pin=U1-5
Added Pin To Net: NetName=GND Pin=U1-21
Added Net: Name=GND
Added Pin To Net: NetName=LCD_D4 Pin=IDE1-9
Added Pin To Net: NetName=LCD_D4 Pin=JP1-6
Added Pin To Net: NetName=LCD_D4 Pin=U1-16
Added Net: Name=LCD_D4
Added Pin To Net: NetName=LCD_D5 Pin=IDE1-7
Added Pin To Net: NetName=LCD_D5 Pin=JP1-7
Added Pin To Net: NetName=LCD_D5 Pin=U1-17
Added Net: Name=LCD_D5
Added Pin To Net: NetName=LCD_D6 Pin=JP1-8
Added Pin To Net: NetName=LCD_D6 Pin=U1-7
Added Net: Name=LCD_D6
Added Pin To Net: NetName=LCD_D7 Pin=JP1-9
Added Pin To Net: NetName=LCD_D7 Pin=U1-8
Added Net: Name=LCD_D7
Added Pin To Net: NetName=LCD_EN Pin=JP1-5
Added Pin To Net: NetName=LCD_EN Pin=U1-14
Added Net: Name=LCD_EN
Added Pin To Net: NetName=LCD_LED Pin=JP1-10
Added Net: Name=LCD_LED
Added Pin To Net: NetName=LCD_RS Pin=JP1-3
Added Pin To Net: NetName=LCD_RS Pin=U1-12
Added Net: Name=LCD_RS
Added Pin To Net: NetName=LCD_RW Pin=JP1-4
Added Pin To Net: NetName=LCD_RW Pin=U1-13
Added Net: Name=LCD_RW
Added Pin To Net: NetName=MOSI Pin=IDE1-1
Added Pin To Net: NetName=MOSI Pin=U1-15
Added Net: Name=MOSI
Added Pin To Net: NetName=NetC5_1 Pin=C5-1
Added Pin To Net: NetName=NetC5_1 Pin=U1-6
Added Net: Name=NetC5_1
Added Pin To Net: NetName=NetC6_1 Pin=C6-1
Added Pin To Net: NetName=NetC6_1 Pin=U1-4
Added Net: Name=NetC6_1
Added Pin To Net: NetName=NetC7_1 Pin=C7-1
Added Pin To Net: NetName=NetC7_1 Pin=U1-18
Added Net: Name=NetC7_1
Added Pin To Net: NetName=NetC8_1 Pin=C8-1
Added Pin To Net: NetName=NetC8_1 Pin=U1-20
Added Net: Name=NetC8_1
Added Pin To Net: NetName=NetJACK DC1_1 Pin=JACK DC1-1
Added Pin To Net: NetName=NetJACK DC1_1 Pin=SW1-3
Added Pin To Net: NetName=NetJACK DC1_1 Pin=SW1-6
Added Net: Name=NetJACK DC1_1
Added Pin To Net: NetName=NetLED1_1 Pin=LED1-1
Added Pin To Net: NetName=NetLED1_1 Pin=R1-1
Added Net: Name=NetLED1_1
Added Pin To Net: NetName=ROW1 Pin=JP2-5
Added Net: Name=ROW1
Added Pin To Net: NetName=ROW2 Pin=JP2-6
Added Net: Name=ROW2
Added Pin To Net: NetName=ROW3 Pin=JP2-7
Added Net: Name=ROW3
Added Pin To Net: NetName=ROW4 Pin=JP2-8
Added Net: Name=ROW4
Added Pin To Net: NetName=RS485_A Pin=CON1-2
Added Pin To Net: NetName=RS485_A Pin=IC1-6
Added Pin To Net: NetName=RS485_A Pin=R2-1
Added Pin To Net: NetName=RS485_A Pin=R3-1
Added Net: Name=RS485_A
Added Pin To Net: NetName=RS485_B Pin=CON1-1
Added Pin To Net: NetName=RS485_B Pin=IC1-7
Added Pin To Net: NetName=RS485_B Pin=R2-2
Added Pin To Net: NetName=RS485_B Pin=R4-1
Added Net: Name=RS485_B
Added Pin To Net: NetName=RS485_RX Pin=IC1-1
Added Pin To Net: NetName=RS485_RX Pin=U1-30
Added Net: Name=RS485_RX
Added Pin To Net: NetName=RS485_TR Pin=IC1-2
Added Pin To Net: NetName=RS485_TR Pin=IC1-3
Added Net: Name=RS485_TR
Added Pin To Net: NetName=RS485_TX Pin=IC1-4
Added Pin To Net: NetName=RS485_TX Pin=U1-31
Added Net: Name=RS485_TX
Added Pin To Net: NetName=RST Pin=BT1-1
Added Pin To Net: NetName=RST Pin=C9-2
Added Pin To Net: NetName=RST Pin=IDE1-5
Added Pin To Net: NetName=RST Pin=R5-2
Added Pin To Net: NetName=RST Pin=U1-29
Added Net: Name=RST
Added Pin To Net: NetName=VCC Pin=C1-1
Added Pin To Net: NetName=VCC Pin=C2-2
Added Pin To Net: NetName=VCC Pin=IC1-8
Added Pin To Net: NetName=VCC Pin=IC2-3
Added Pin To Net: NetName=VCC Pin=IDE1-2
Added Pin To Net: NetName=VCC Pin=JP1-2
Added Pin To Net: NetName=VCC Pin=R1-2
Added Pin To Net: NetName=VCC Pin=R3-2
Added Pin To Net: NetName=VCC Pin=R5-1
Added Net: Name=VCC
Added Class: Name=SCH
Added Room: Name=SCH
