Removed Pin From Net: NetName=MOSI Pin=IDE1-1
Removed Pin From Net: NetName=VCC Pin=IDE1-2
Removed Pin From Net: NetName=GND Pin=IDE1-4
Removed Pin From Net: NetName=RST Pin=IDE1-5
Removed Pin From Net: NetName=GND Pin=IDE1-6
Removed Pin From Net: NetName=LCD_D5 Pin=IDE1-7
Removed Pin From Net: NetName=GND Pin=IDE1-8
Removed Pin From Net: NetName=LCD_D4 Pin=IDE1-9
Removed Pin From Net: NetName=GND Pin=IDE1-10
Removed Member From Class: ClassName=SCH Member=IDE1
Added Component: Designator=J1(JUMP DON 6)
Added Pin To Net: NetName=GND Pin=J1-1
Added Pin To Net: NetName=VCC Pin=J1-2
Added Pin To Net: NetName=MOSI Pin=J1-3
Added Pin To Net: NetName=LCD_D4 Pin=J1-4
Added Pin To Net: NetName=LCD_D5 Pin=J1-5
Added Pin To Net: NetName=RST Pin=J1-6
Added Member To Class: ClassName=SCH Member=Component J1 JP6
