Added Component: Designator=Q1(SOT23B)
Added Component: Designator=R10(res_0805)
Added Pin To Net: NetName=GND Pin=Q1-1
Added Pin To Net: NetName=LCD_LED Pin=Q1-2
Added Pin To Net: NetName=LCD_LED_A Pin=R10-2
Added Net: Name=LCD_LED_A
Added Pin To Net: NetName=NetQ1_3 Pin=Q1-3
Added Pin To Net: NetName=NetQ1_3 Pin=R10-1
Added Net: Name=NetQ1_3
Added Member To Class: ClassName=SCH Member=Component Q1 C1815
Added Member To Class: ClassName=SCH Member=Component R10 1k
