Added Component: Designator=IC1(DIP16)
Added Pin To Net: NetName=GND Pin=IC1-1
Added Pin To Net: NetName=XT1 Pin=IC1-2
Added Pin To Net: NetName=XT2 Pin=IC1-3
Added Pin To Net: NetName=K1 Pin=IC1-4
Added Pin To Net: NetName=K2 Pin=IC1-5
Added Pin To Net: NetName=K3 Pin=IC1-6
Added Pin To Net: NetName=K4 Pin=IC1-7
Added Pin To Net: NetName=K5 Pin=IC1-8
Added Pin To Net: NetName=K6 Pin=IC1-9
Added Pin To Net: NetName=T1 Pin=IC1-10
Added Pin To Net: NetName=T2 Pin=IC1-11
Added Pin To Net: NetName=VCC Pin=IC1-14
Added Pin To Net: NetName=TX_OUT Pin=IC1-15
Added Pin To Net: NetName=VCC Pin=IC1-16
Added Member To Class: ClassName=SCH Member=Component IC1 PT2248
