Added Component: Designator=IC2(TDA7294)
Added Pin To Net: NetName=GND Pin=IC2-1
Added Pin To Net: NetName=MT1 Pin=IC2-2
Added Pin To Net: NetName=MT2 Pin=IC2-3
Added Pin To Net: NetName=VCC Pin=IC2-4
Added Pin To Net: NetName=IN1 Pin=IC2-5
Added Pin To Net: NetName=VCC Pin=IC2-6
Added Pin To Net: NetName=IN2 Pin=IC2-7
Added Pin To Net: NetName=GND Pin=IC2-8
Added Pin To Net: NetName=VCC Pin=IC2-9
Added Member To Class: ClassName=SCH Member=Component IC2 L298
Added Room: Name=SCH
