Added Component: Designator=8MHz(Thach anh 2 chan)
Added Component: Designator=12MHz(Thach anh 2 chan)
Added Component: Designator=BT1(Nut Nhan 2 Chan)
Added Component: Designator=C1(C8mm)
Added Component: Designator=C2(C8mm)
Added Component: Designator=C3(0805)
Added Component: Designator=C4(0805)
Added Component: Designator=C5(C8mm)
Added Component: Designator=C6(C8mm)
Added Component: Designator=C7(0805)
Added Component: Designator=C8(0805)
Added Component: Designator=C9(0805)
Added Component: Designator=C10(0805)
Added Component: Designator=C11(0805)
Added Component: Designator=C12(0805)
Added Component: Designator=C13(0805)
Added Component: Designator=C14(0805)
Added Component: Designator=C15(0805)
Added Component: Designator=C16(0805)
Added Component: Designator=C17(0805)
Added Component: Designator=C18(0805)
Added Component: Designator=COM1(DSB 9-M)
Added Component: Designator=IC1(SOP 8)
Added Component: Designator=IC2(SOP 8)
Added Component: Designator=IC3(QTO-220H1)
Added Component: Designator=J1(JUMP DON 4)
Added Component: Designator=JACK DC1(JACK DC 5.5)
Added Component: Designator=JP1(HDR2X3)
Added Component: Designator=LED1(LED Phi 5)
Added Component: Designator=LED2(LED Phi 5)
Added Component: Designator=LED_PW(LED Phi 5)
Added Component: Designator=R1(Tro 2W)
Added Component: Designator=R2(Res_0805)
Added Component: Designator=R3(Res_0805)
Added Component: Designator=R3(Res_0805)
Added Component: Designator=R4(Res_0805)
Added Component: Designator=R4(Res_0805)
Added Component: Designator=R5(Res_0805)
Added Component: Designator=R6(res_0805)
Added Component: Designator=R7(res_0805)
Added Component: Designator=R8(res_0805)
Added Component: Designator=R9(res_0805)
Added Component: Designator=R10(res_0805)
Added Component: Designator=R11(res_0805)
Added Component: Designator=RJ1(RJ45)
Added Component: Designator=U1(LM1117-SOP)
Added Component: Designator=U2(LQFP48_L)
Added Component: Designator=U3(SOP 16)
Added Component: Designator=USB1(USB-B-Mini)
Added Pin To Net: NetName=3.3V Pin=C6-1
Added Pin To Net: NetName=3.3V Pin=C8-2
Added Pin To Net: NetName=3.3V Pin=C9-2
Added Pin To Net: NetName=3.3V Pin=C10-2
Added Pin To Net: NetName=3.3V Pin=C11-2
Added Pin To Net: NetName=3.3V Pin=C12-2
Added Pin To Net: NetName=3.3V Pin=JP1-1
Added Pin To Net: NetName=3.3V Pin=JP1-2
Added Pin To Net: NetName=3.3V Pin=R6-1
Added Pin To Net: NetName=3.3V Pin=R7-1
Added Pin To Net: NetName=3.3V Pin=R8-1
Added Pin To Net: NetName=3.3V Pin=R11-1
Added Pin To Net: NetName=3.3V Pin=U1-2
Added Pin To Net: NetName=3.3V Pin=U1-2
Added Pin To Net: NetName=3.3V Pin=U2-9
Added Pin To Net: NetName=3.3V Pin=U2-24
Added Pin To Net: NetName=3.3V Pin=U2-36
Added Pin To Net: NetName=3.3V Pin=U2-48
Added Net: Name=3.3V
Added Pin To Net: NetName=24V Pin=JACK DC1-1
Added Pin To Net: NetName=24V Pin=R1-1
Added Net: Name=24V
Added Pin To Net: NetName=BOOT0 Pin=JP1-3
Added Pin To Net: NetName=BOOT0 Pin=R9-1
Added Pin To Net: NetName=BOOT0 Pin=U2-44
Added Net: Name=BOOT0
Added Pin To Net: NetName=BOOT1 Pin=JP1-4
Added Pin To Net: NetName=BOOT1 Pin=R10-1
Added Pin To Net: NetName=BOOT1 Pin=U2-20
Added Net: Name=BOOT1
Added Pin To Net: NetName=GND Pin=BT1-2
Added Pin To Net: NetName=GND Pin=C1-2
Added Pin To Net: NetName=GND Pin=C2-2
Added Pin To Net: NetName=GND Pin=C3-1
Added Pin To Net: NetName=GND Pin=C4-1
Added Pin To Net: NetName=GND Pin=C5-2
Added Pin To Net: NetName=GND Pin=C6-2
Added Pin To Net: NetName=GND Pin=C7-1
Added Pin To Net: NetName=GND Pin=C8-1
Added Pin To Net: NetName=GND Pin=C9-1
Added Pin To Net: NetName=GND Pin=C10-1
Added Pin To Net: NetName=GND Pin=C11-1
Added Pin To Net: NetName=GND Pin=C12-1
Added Pin To Net: NetName=GND Pin=C13-2
Added Pin To Net: NetName=GND Pin=C14-1
Added Pin To Net: NetName=GND Pin=C15-1
Added Pin To Net: NetName=GND Pin=C16-1
Added Pin To Net: NetName=GND Pin=C17-1
Added Pin To Net: NetName=GND Pin=C18-1
Added Pin To Net: NetName=GND Pin=COM1-5
Added Pin To Net: NetName=GND Pin=IC1-5
Added Pin To Net: NetName=GND Pin=IC2-5
Added Pin To Net: NetName=GND Pin=IC3-2
Added Pin To Net: NetName=GND Pin=J1-2
Added Pin To Net: NetName=GND Pin=JACK DC1-2
Added Pin To Net: NetName=GND Pin=JACK DC1-3
Added Pin To Net: NetName=GND Pin=LED_PW-2
Added Pin To Net: NetName=GND Pin=R4-2
Added Pin To Net: NetName=GND Pin=R5-2
Added Pin To Net: NetName=GND Pin=R9-2
Added Pin To Net: NetName=GND Pin=R10-2
Added Pin To Net: NetName=GND Pin=U1-1
Added Pin To Net: NetName=GND Pin=U2-8
Added Pin To Net: NetName=GND Pin=U2-23
Added Pin To Net: NetName=GND Pin=U2-35
Added Pin To Net: NetName=GND Pin=U2-47
Added Pin To Net: NetName=GND Pin=U3-1
Added Pin To Net: NetName=GND Pin=USB1-4
Added Pin To Net: NetName=GND Pin=USB1-5
Added Net: Name=GND
Added Pin To Net: NetName=LED1 Pin=LED1-2
Added Net: Name=LED1
Added Pin To Net: NetName=LED2 Pin=LED2-2
Added Net: Name=LED2
Added Pin To Net: NetName=NetC1_1 Pin=C1-1
Added Pin To Net: NetName=NetC1_1 Pin=C3-2
Added Pin To Net: NetName=NetC1_1 Pin=IC3-1
Added Pin To Net: NetName=NetC1_1 Pin=R1-2
Added Net: Name=NetC1_1
Added Pin To Net: NetName=NetC13_1 Pin=C13-1
Added Pin To Net: NetName=NetC13_1 Pin=U3-4
Added Net: Name=NetC13_1
Added Pin To Net: NetName=NetLED1_1 Pin=LED1-1
Added Pin To Net: NetName=NetLED1_1 Pin=R7-2
Added Net: Name=NetLED1_1
Added Pin To Net: NetName=NetLED2_1 Pin=LED2-1
Added Pin To Net: NetName=NetLED2_1 Pin=R8-2
Added Net: Name=NetLED2_1
Added Pin To Net: NetName=NetLED_PW_1 Pin=LED_PW-1
Added Pin To Net: NetName=NetLED_PW_1 Pin=R6-2
Added Net: Name=NetLED_PW_1
Added Pin To Net: NetName=RS485_A_1 Pin=COM1-2
Added Pin To Net: NetName=RS485_A_1 Pin=IC1-6
Added Pin To Net: NetName=RS485_A_1 Pin=R2-1
Added Pin To Net: NetName=RS485_A_1 Pin=R3-1
Added Net: Name=RS485_A_1
Added Pin To Net: NetName=RS485_A_2 Pin=IC2-6
Added Pin To Net: NetName=RS485_A_2 Pin=R3-1
Added Pin To Net: NetName=RS485_A_2 Pin=R4-1
Added Pin To Net: NetName=RS485_A_2 Pin=RJ1-1
Added Net: Name=RS485_A_2
Added Pin To Net: NetName=RS485_B_1 Pin=COM1-1
Added Pin To Net: NetName=RS485_B_1 Pin=IC1-7
Added Pin To Net: NetName=RS485_B_1 Pin=R2-2
Added Pin To Net: NetName=RS485_B_1 Pin=R4-1
Added Net: Name=RS485_B_1
Added Pin To Net: NetName=RS485_B_2 Pin=IC2-7
Added Pin To Net: NetName=RS485_B_2 Pin=R3-2
Added Pin To Net: NetName=RS485_B_2 Pin=R5-1
Added Pin To Net: NetName=RS485_B_2 Pin=RJ1-6
Added Net: Name=RS485_B_2
Added Pin To Net: NetName=RS485_TR_1 Pin=IC1-2
Added Pin To Net: NetName=RS485_TR_1 Pin=IC1-3
Added Net: Name=RS485_TR_1
Added Pin To Net: NetName=RS485_TR_2 Pin=IC2-2
Added Pin To Net: NetName=RS485_TR_2 Pin=IC2-3
Added Net: Name=RS485_TR_2
Added Pin To Net: NetName=RST Pin=BT1-1
Added Pin To Net: NetName=RST Pin=C18-2
Added Pin To Net: NetName=RST Pin=R11-2
Added Pin To Net: NetName=RST Pin=U2-7
Added Net: Name=RST
Added Pin To Net: NetName=TCK Pin=J1-4
Added Pin To Net: NetName=TCK Pin=U2-37
Added Net: Name=TCK
Added Pin To Net: NetName=TMS Pin=J1-3
Added Pin To Net: NetName=TMS Pin=U2-34
Added Net: Name=TMS
Added Pin To Net: NetName=UD+ Pin=U3-5
Added Pin To Net: NetName=UD+ Pin=USB1-3
Added Net: Name=UD+
Added Pin To Net: NetName=UD- Pin=U3-6
Added Pin To Net: NetName=UD- Pin=USB1-2
Added Net: Name=UD-
Added Pin To Net: NetName=USART1_RX Pin=IC1-1
Added Pin To Net: NetName=USART1_RX Pin=U2-31
Added Net: Name=USART1_RX
Added Pin To Net: NetName=USART1_TX Pin=IC1-4
Added Pin To Net: NetName=USART1_TX Pin=U2-30
Added Net: Name=USART1_TX
Added Pin To Net: NetName=USART2_RX Pin=IC2-1
Added Pin To Net: NetName=USART2_RX Pin=U2-13
Added Net: Name=USART2_RX
Added Pin To Net: NetName=USART2_TX Pin=IC2-4
Added Pin To Net: NetName=USART2_TX Pin=U2-12
Added Net: Name=USART2_TX
Added Pin To Net: NetName=USART3_RX Pin=U2-22
Added Pin To Net: NetName=USART3_RX Pin=U3-2
Added Net: Name=USART3_RX
Added Pin To Net: NetName=USART3_TX Pin=U2-21
Added Pin To Net: NetName=USART3_TX Pin=U3-3
Added Net: Name=USART3_TX
Added Pin To Net: NetName=VCC Pin=C2-1
Added Pin To Net: NetName=VCC Pin=C4-2
Added Pin To Net: NetName=VCC Pin=C5-1
Added Pin To Net: NetName=VCC Pin=C7-2
Added Pin To Net: NetName=VCC Pin=IC1-8
Added Pin To Net: NetName=VCC Pin=IC2-8
Added Pin To Net: NetName=VCC Pin=IC3-3
Added Pin To Net: NetName=VCC Pin=J1-1
Added Pin To Net: NetName=VCC Pin=R3-2
Added Pin To Net: NetName=VCC Pin=R4-2
Added Pin To Net: NetName=VCC Pin=U1-3
Added Pin To Net: NetName=VCC Pin=U3-16
Added Pin To Net: NetName=VCC Pin=USB1-1
Added Net: Name=VCC
Added Pin To Net: NetName=XTAL1 Pin=8MHz-2
Added Pin To Net: NetName=XTAL1 Pin=C16-2
Added Pin To Net: NetName=XTAL1 Pin=U2-5
Added Net: Name=XTAL1
Added Pin To Net: NetName=XTAL2 Pin=8MHz-1
Added Pin To Net: NetName=XTAL2 Pin=C17-2
Added Pin To Net: NetName=XTAL2 Pin=U2-6
Added Net: Name=XTAL2
Added Pin To Net: NetName=XTAL3 Pin=12MHz-2
Added Pin To Net: NetName=XTAL3 Pin=C14-2
Added Pin To Net: NetName=XTAL3 Pin=U3-7
Added Net: Name=XTAL3
Added Pin To Net: NetName=XTAL4 Pin=12MHz-1
Added Pin To Net: NetName=XTAL4 Pin=C15-2
Added Pin To Net: NetName=XTAL4 Pin=U3-8
Added Net: Name=XTAL4
Added Class: Name=SCH_HMI
Added Room: Name=SCH_HMI
