Added Component: Designator=IC1(DIP16)
Added Pin To Net: NetName=LED_OUT Pin=IC1-3
Added Pin To Net: NetName=RST Pin=IC1-4
Added Pin To Net: NetName=GND Pin=IC1-8
Added Pin To Net: NetName=GND Pin=IC1-13
Added Pin To Net: NetName=CLK Pin=IC1-14
Added Pin To Net: NetName=RST Pin=IC1-15
Added Pin To Net: NetName=VCC Pin=IC1-16
