Added Component: Designator=C1(C8mm)
Added Component: Designator=C2(Tu-ceramic)
Added Component: Designator=C3(Tu-ceramic)
Added Component: Designator=C4(C5mm)
Added Component: Designator=IC2(DIP18)
Added Component: Designator=J1(JUMP DON 4)
Added Component: Designator=J2(Jack Audio 3.5 - 5P)
Added Component: Designator=JACK DC1(JACK DC 5.5)
Added Component: Designator=LED1(LED Phi 5)
Added Component: Designator=LED2(LED Phi 5)
Added Component: Designator=LED3(Dip20)
Added Component: Designator=Q1(SOT23B)
Added Component: Designator=Q2(SOT23B)
Added Component: Designator=R1(Tro 1/4W)
Added Component: Designator=R2(Tro 1/4W)
Added Component: Designator=R3(Tro 1/4W)
Added Component: Designator=R4(Tro 1/4W)
Added Component: Designator=R5(Tro 1/4W)
Added Component: Designator=R6(Tro 1/4W)
Added Component: Designator=R7(Tro 1/4W)
Added Component: Designator=R8(Tro 1/4W)
Added Component: Designator=R9(Tro 1/4W)
Added Component: Designator=R10(Tro 1/4W)
Added Component: Designator=R11(Tro 1/4W)
Added Component: Designator=R12(Tro 1/4W)
Added Component: Designator=R13(Tro 1/4W)
Added Component: Designator=R14(Tro 1/4W)
Added Component: Designator=R15(Tro 1/4W)
Added Component: Designator=R16(Tro 1/4W)
Added Component: Designator=SW1(8x8)
Added Pin To Net: NetName=AO Pin=J1-1
Added Net: Name=AO
Added Pin To Net: NetName=CLK Pin=Q2-2
Added Pin To Net: NetName=CLK Pin=R3-2
Added Net: Name=CLK
Added Pin To Net: NetName=DO Pin=J1-4
Added Pin To Net: NetName=DO Pin=Q1-3
Added Net: Name=DO
Added Pin To Net: NetName=GND Pin=C1-2
Added Pin To Net: NetName=GND Pin=C2-1
Added Pin To Net: NetName=GND Pin=C3-1
Added Pin To Net: NetName=GND Pin=C4-2
Added Pin To Net: NetName=GND Pin=IC2-2
Added Pin To Net: NetName=GND Pin=IC2-4
Added Pin To Net: NetName=GND Pin=J1-2
Added Pin To Net: NetName=GND Pin=J2-1
Added Pin To Net: NetName=GND Pin=JACK DC1-2
Added Pin To Net: NetName=GND Pin=JACK DC1-3
Added Pin To Net: NetName=GND Pin=LED1-2
Added Pin To Net: NetName=GND Pin=LED2-2
Added Pin To Net: NetName=GND Pin=Q2-1
Added Pin To Net: NetName=GND Pin=R6-2
Added Net: Name=GND
Added Pin To Net: NetName=LED1 Pin=IC2-1
Added Pin To Net: NetName=LED1 Pin=LED3-20
Added Net: Name=LED1
Added Pin To Net: NetName=LED2 Pin=IC2-18
Added Pin To Net: NetName=LED2 Pin=LED3-19
Added Net: Name=LED2
Added Pin To Net: NetName=LED3 Pin=IC2-17
Added Pin To Net: NetName=LED3 Pin=LED3-18
Added Net: Name=LED3
Added Pin To Net: NetName=LED4 Pin=IC2-16
Added Pin To Net: NetName=LED4 Pin=LED3-17
Added Net: Name=LED4
Added Pin To Net: NetName=LED5 Pin=IC2-15
Added Pin To Net: NetName=LED5 Pin=LED3-16
Added Net: Name=LED5
Added Pin To Net: NetName=LED6 Pin=IC2-14
Added Pin To Net: NetName=LED6 Pin=LED3-15
Added Net: Name=LED6
Added Pin To Net: NetName=LED7 Pin=IC2-13
Added Pin To Net: NetName=LED7 Pin=LED3-14
Added Net: Name=LED7
Added Pin To Net: NetName=LED8 Pin=IC2-12
Added Pin To Net: NetName=LED8 Pin=LED3-13
Added Net: Name=LED8
Added Pin To Net: NetName=LED9 Pin=IC2-11
Added Pin To Net: NetName=LED9 Pin=LED3-12
Added Net: Name=LED9
Added Pin To Net: NetName=LED10 Pin=IC2-10
Added Pin To Net: NetName=LED10 Pin=LED3-11
Added Net: Name=LED10
Added Pin To Net: NetName=LED_OUT Pin=R1-2
Added Net: Name=LED_OUT
Added Pin To Net: NetName=NetC3_2 Pin=C3-2
Added Pin To Net: NetName=NetC3_2 Pin=Q1-1
Added Pin To Net: NetName=NetC3_2 Pin=R4-2
Added Net: Name=NetC3_2
Added Pin To Net: NetName=NetJACK DC1_1 Pin=JACK DC1-1
Added Pin To Net: NetName=NetJACK DC1_1 Pin=SW1-3
Added Pin To Net: NetName=NetJACK DC1_1 Pin=SW1-6
Added Net: Name=NetJACK DC1_1
Added Pin To Net: NetName=NetLED1_1 Pin=LED1-1
Added Pin To Net: NetName=NetLED1_1 Pin=R1-1
Added Net: Name=NetLED1_1
Added Pin To Net: NetName=NetLED2_1 Pin=LED2-1
Added Pin To Net: NetName=NetLED2_1 Pin=R2-1
Added Net: Name=NetLED2_1
Added Pin To Net: NetName=NetLED3_1 Pin=LED3-1
Added Pin To Net: NetName=NetLED3_1 Pin=R7-1
Added Net: Name=NetLED3_1
Added Pin To Net: NetName=NetLED3_2 Pin=LED3-2
Added Pin To Net: NetName=NetLED3_2 Pin=R8-1
Added Net: Name=NetLED3_2
Added Pin To Net: NetName=NetLED3_3 Pin=LED3-3
Added Pin To Net: NetName=NetLED3_3 Pin=R9-1
Added Net: Name=NetLED3_3
Added Pin To Net: NetName=NetLED3_4 Pin=LED3-4
Added Pin To Net: NetName=NetLED3_4 Pin=R10-1
Added Net: Name=NetLED3_4
Added Pin To Net: NetName=NetLED3_5 Pin=LED3-5
Added Pin To Net: NetName=NetLED3_5 Pin=R11-1
Added Net: Name=NetLED3_5
Added Pin To Net: NetName=NetLED3_6 Pin=LED3-6
Added Pin To Net: NetName=NetLED3_6 Pin=R12-1
Added Net: Name=NetLED3_6
Added Pin To Net: NetName=NetLED3_7 Pin=LED3-7
Added Pin To Net: NetName=NetLED3_7 Pin=R13-1
Added Net: Name=NetLED3_7
Added Pin To Net: NetName=NetLED3_8 Pin=LED3-8
Added Pin To Net: NetName=NetLED3_8 Pin=R14-1
Added Net: Name=NetLED3_8
Added Pin To Net: NetName=NetLED3_9 Pin=LED3-9
Added Pin To Net: NetName=NetLED3_9 Pin=R15-1
Added Net: Name=NetLED3_9
Added Pin To Net: NetName=NetLED3_10 Pin=LED3-10
Added Pin To Net: NetName=NetLED3_10 Pin=R16-1
Added Net: Name=NetLED3_10
Added Pin To Net: NetName=NetQ2_3 Pin=Q2-3
Added Pin To Net: NetName=NetQ2_3 Pin=R4-1
Added Net: Name=NetQ2_3
Added Pin To Net: NetName=REF_ADJ Pin=IC2-8
Added Pin To Net: NetName=REF_ADJ Pin=R5-2
Added Pin To Net: NetName=REF_ADJ Pin=R6-1
Added Net: Name=REF_ADJ
Added Pin To Net: NetName=REF_OUT Pin=IC2-6
Added Pin To Net: NetName=REF_OUT Pin=IC2-7
Added Pin To Net: NetName=REF_OUT Pin=R5-1
Added Net: Name=REF_OUT
Added Net: Name=RST
Added Pin To Net: NetName=SIG Pin=IC2-5
Added Pin To Net: NetName=SIG Pin=J2-2
Added Pin To Net: NetName=SIG Pin=J2-3
Added Pin To Net: NetName=SIG Pin=J2-4
Added Pin To Net: NetName=SIG Pin=J2-5
Added Net: Name=SIG
Added Pin To Net: NetName=VCC Pin=C1-1
Added Pin To Net: NetName=VCC Pin=C2-2
Added Pin To Net: NetName=VCC Pin=C4-1
Added Pin To Net: NetName=VCC Pin=IC2-3
Added Pin To Net: NetName=VCC Pin=IC2-9
Added Pin To Net: NetName=VCC Pin=J1-3
Added Pin To Net: NetName=VCC Pin=Q1-2
Added Pin To Net: NetName=VCC Pin=R2-2
Added Pin To Net: NetName=VCC Pin=R3-1
Added Pin To Net: NetName=VCC Pin=R7-2
Added Pin To Net: NetName=VCC Pin=R8-2
Added Pin To Net: NetName=VCC Pin=R9-2
Added Pin To Net: NetName=VCC Pin=R10-2
Added Pin To Net: NetName=VCC Pin=R11-2
Added Pin To Net: NetName=VCC Pin=R12-2
Added Pin To Net: NetName=VCC Pin=R13-2
Added Pin To Net: NetName=VCC Pin=R14-2
Added Pin To Net: NetName=VCC Pin=R15-2
Added Pin To Net: NetName=VCC Pin=R16-2
Added Pin To Net: NetName=VCC Pin=SW1-2
Added Pin To Net: NetName=VCC Pin=SW1-5
Added Net: Name=VCC
Added Class: Name=SCH_Mach_bat_tat_den_+_Nhay_theo_nhac
Added Room: Name=SCH_Mach_bat_tat_den_+_Nhay_theo_nhac
