Removed Pin From Net: NetName=VCC Pin=RP1-1
Removed Pin From Net: NetName=LCD_D7 Pin=RP1-2
Removed Pin From Net: NetName=LCD_D6 Pin=RP1-3
Removed Pin From Net: NetName=LCD_D5 Pin=RP1-4
Removed Pin From Net: NetName=LCD_D4 Pin=RP1-5
Removed Pin From Net: NetName=LCD_EN Pin=RP1-7
Removed Pin From Net: NetName=LCD_RW Pin=RP1-8
Removed Pin From Net: NetName=LCD_RS Pin=RP1-9
Removed Member From Class: ClassName=Sch_Fire_Warning_8051 Member=RP1
